05-20-2018 @ 18:58:51 - 
====Stripe Version: 4.1.3====
====Start Log====
Keys are not set correctly.
====End Log====


05-21-2018 @ 08:17:42 - 
====Stripe Version: 4.1.3====
====Start Log====
Keys are not set correctly.
====End Log====


05-21-2018 @ 08:18:20 - 
====Stripe Version: 4.1.3====
====Start Log====
Keys are not set correctly.
====End Log====


05-21-2018 @ 08:18:24 - 
====Stripe Version: 4.1.3====
====Start Log====
Keys are not set correctly.
====End Log====


05-21-2018 @ 08:31:28 - 
====Stripe Version: 4.1.3====
====Start Log====
Keys are not set correctly.
====End Log====


05-21-2018 @ 08:32:58 - 
====Stripe Version: 4.1.3====
====Start Log====
Keys are not set correctly.
====End Log====


05-21-2018 @ 08:33:04 - 
====Stripe Version: 4.1.3====
====Start Log====
Keys are not set correctly.
====End Log====


05-21-2018 @ 08:37:43 - 
====Stripe Version: 4.1.3====
====Start Log====
Keys are not set correctly.
====End Log====


05-21-2018 @ 08:38:56 - 
====Stripe Version: 4.1.3====
====Start Log====
Keys are not set correctly.
====End Log====


05-21-2018 @ 08:38:58 - 
====Stripe Version: 4.1.3====
====Start Log====
Keys are not set correctly.
====End Log====


05-21-2018 @ 08:38:59 - 
====Stripe Version: 4.1.3====
====Start Log====
Keys are not set correctly.
====End Log====


05-21-2018 @ 08:40:25 - 
====Stripe Version: 4.1.3====
====Start Log====
Keys are not set correctly.
====End Log====


05-21-2018 @ 08:41:18 - 
====Stripe Version: 4.1.3====
====Start Log====
Keys are not set correctly.
====End Log====


05-21-2018 @ 08:44:10 - 
====Stripe Version: 4.1.3====
====Start Log====
Keys are not set correctly.
====End Log====


05-21-2018 @ 08:45:52 - 
====Stripe Version: 4.1.3====
====Start Log====
Keys are not set correctly.
====End Log====


05-21-2018 @ 08:45:54 - 
====Stripe Version: 4.1.3====
====Start Log====
Keys are not set correctly.
====End Log====


05-21-2018 @ 08:47:17 - 
====Stripe Version: 4.1.3====
====Start Log====
Keys are not set correctly.
====End Log====


05-21-2018 @ 08:49:19 - 
====Stripe Version: 4.1.3====
====Start Log====
Keys are not set correctly.
====End Log====


05-21-2018 @ 08:52:09 - 
====Stripe Version: 4.1.3====
====Start Log====
Keys are not set correctly.
====End Log====


05-21-2018 @ 08:53:16 - 
====Stripe Version: 4.1.3====
====Start Log====
Keys are not set correctly.
====End Log====


05-21-2018 @ 08:53:23 - 
====Stripe Version: 4.1.3====
====Start Log====
Keys are not set correctly.
====End Log====


05-21-2018 @ 08:54:26 - 
====Stripe Version: 4.1.3====
====Start Log====
Keys are not set correctly.
====End Log====


05-21-2018 @ 08:56:48 - 
====Stripe Version: 4.1.3====
====Start Log====
Keys are not set correctly.
====End Log====


05-21-2018 @ 08:56:52 - 
====Stripe Version: 4.1.3====
====Start Log====
Keys are not set correctly.
====End Log====


05-21-2018 @ 08:58:49 - 
====Stripe Version: 4.1.3====
====Start Log====
Keys are not set correctly.
====End Log====


05-21-2018 @ 09:00:00 - 
====Stripe Version: 4.1.3====
====Start Log====
Keys are not set correctly.
====End Log====


05-21-2018 @ 09:00:58 - 
====Stripe Version: 4.1.3====
====Start Log====
Keys are not set correctly.
====End Log====


05-21-2018 @ 09:01:19 - 
====Stripe Version: 4.1.3====
====Start Log====
Keys are not set correctly.
====End Log====


05-21-2018 @ 09:01:40 - 
====Stripe Version: 4.1.3====
====Start Log====
Keys are not set correctly.
====End Log====


05-21-2018 @ 09:01:42 - 
====Stripe Version: 4.1.3====
====Start Log====
Keys are not set correctly.
====End Log====


05-21-2018 @ 09:02:40 - 
====Stripe Version: 4.1.3====
====Start Log====
Keys are not set correctly.
====End Log====


05-21-2018 @ 09:03:38 - 
====Stripe Version: 4.1.3====
====Start Log====
Keys are not set correctly.
====End Log====


05-21-2018 @ 09:05:15 - 
====Stripe Version: 4.1.3====
====Start Log====
Keys are not set correctly.
====End Log====


05-21-2018 @ 09:06:03 - 
====Stripe Version: 4.1.3====
====Start Log====
Keys are not set correctly.
====End Log====


05-21-2018 @ 09:06:30 - 
====Stripe Version: 4.1.3====
====Start Log====
Keys are not set correctly.
====End Log====


05-21-2018 @ 09:07:05 - 
====Stripe Version: 4.1.3====
====Start Log====
Keys are not set correctly.
====End Log====


05-21-2018 @ 09:08:27 - 
====Stripe Version: 4.1.3====
====Start Log====
Keys are not set correctly.
====End Log====


05-21-2018 @ 09:10:28 - 
====Stripe Version: 4.1.3====
====Start Log====
Keys are not set correctly.
====End Log====


05-21-2018 @ 09:10:33 - 
====Stripe Version: 4.1.3====
====Start Log====
Keys are not set correctly.
====End Log====


05-21-2018 @ 09:11:03 - 
====Stripe Version: 4.1.3====
====Start Log====
Keys are not set correctly.
====End Log====


05-21-2018 @ 09:12:36 - 
====Stripe Version: 4.1.3====
====Start Log====
Keys are not set correctly.
====End Log====


05-21-2018 @ 09:13:23 - 
====Stripe Version: 4.1.3====
====Start Log====
Keys are not set correctly.
====End Log====


05-21-2018 @ 09:14:22 - 
====Stripe Version: 4.1.3====
====Start Log====
Keys are not set correctly.
====End Log====


05-21-2018 @ 09:16:02 - 
====Stripe Version: 4.1.3====
====Start Log====
Keys are not set correctly.
====End Log====


05-21-2018 @ 09:16:13 - 
====Stripe Version: 4.1.3====
====Start Log====
Keys are not set correctly.
====End Log====


05-21-2018 @ 09:16:53 - 
====Stripe Version: 4.1.3====
====Start Log====
Keys are not set correctly.
====End Log====


05-21-2018 @ 09:17:17 - 
====Stripe Version: 4.1.3====
====Start Log====
Keys are not set correctly.
====End Log====


05-21-2018 @ 09:17:46 - 
====Stripe Version: 4.1.3====
====Start Log====
Keys are not set correctly.
====End Log====


05-21-2018 @ 09:19:14 - 
====Stripe Version: 4.1.3====
====Start Log====
Keys are not set correctly.
====End Log====


05-21-2018 @ 09:19:34 - 
====Stripe Version: 4.1.3====
====Start Log====
Keys are not set correctly.
====End Log====


05-21-2018 @ 09:20:06 - 
====Stripe Version: 4.1.3====
====Start Log====
Keys are not set correctly.
====End Log====


05-21-2018 @ 09:20:15 - 
====Stripe Version: 4.1.3====
====Start Log====
Keys are not set correctly.
====End Log====


05-21-2018 @ 09:21:06 - 
====Stripe Version: 4.1.3====
====Start Log====
Keys are not set correctly.
====End Log====


05-21-2018 @ 09:23:34 - 
====Stripe Version: 4.1.3====
====Start Log====
Keys are not set correctly.
====End Log====


05-21-2018 @ 09:26:00 - 
====Stripe Version: 4.1.3====
====Start Log====
Keys are not set correctly.
====End Log====


05-21-2018 @ 09:26:30 - 
====Stripe Version: 4.1.3====
====Start Log====
Keys are not set correctly.
====End Log====


05-21-2018 @ 09:27:40 - 
====Stripe Version: 4.1.3====
====Start Log====
Keys are not set correctly.
====End Log====


05-21-2018 @ 09:29:55 - 
====Stripe Version: 4.1.3====
====Start Log====
Keys are not set correctly.
====End Log====


05-21-2018 @ 09:30:25 - 
====Stripe Version: 4.1.3====
====Start Log====
Keys are not set correctly.
====End Log====


05-21-2018 @ 09:32:01 - 
====Stripe Version: 4.1.3====
====Start Log====
Keys are not set correctly.
====End Log====


05-21-2018 @ 09:32:49 - 
====Stripe Version: 4.1.3====
====Start Log====
Keys are not set correctly.
====End Log====


05-21-2018 @ 09:36:25 - 
====Stripe Version: 4.1.3====
====Start Log====
Keys are not set correctly.
====End Log====


05-21-2018 @ 09:36:36 - 
====Stripe Version: 4.1.3====
====Start Log====
Keys are not set correctly.
====End Log====


05-21-2018 @ 09:39:11 - 
====Stripe Version: 4.1.3====
====Start Log====
Keys are not set correctly.
====End Log====


05-21-2018 @ 09:39:37 - 
====Stripe Version: 4.1.3====
====Start Log====
Keys are not set correctly.
====End Log====


05-21-2018 @ 09:41:47 - 
====Stripe Version: 4.1.3====
====Start Log====
Keys are not set correctly.
====End Log====


05-21-2018 @ 09:42:51 - 
====Stripe Version: 4.1.3====
====Start Log====
Keys are not set correctly.
====End Log====


05-21-2018 @ 09:43:33 - 
====Stripe Version: 4.1.3====
====Start Log====
Keys are not set correctly.
====End Log====


05-21-2018 @ 09:43:57 - 
====Stripe Version: 4.1.3====
====Start Log====
Keys are not set correctly.
====End Log====


05-21-2018 @ 09:44:07 - 
====Stripe Version: 4.1.3====
====Start Log====
Keys are not set correctly.
====End Log====


05-21-2018 @ 09:45:23 - 
====Stripe Version: 4.1.3====
====Start Log====
Keys are not set correctly.
====End Log====


05-21-2018 @ 09:46:07 - 
====Stripe Version: 4.1.3====
====Start Log====
Keys are not set correctly.
====End Log====


05-21-2018 @ 09:48:06 - 
====Stripe Version: 4.1.3====
====Start Log====
Keys are not set correctly.
====End Log====


05-21-2018 @ 09:50:03 - 
====Stripe Version: 4.1.3====
====Start Log====
Keys are not set correctly.
====End Log====


05-21-2018 @ 09:50:37 - 
====Stripe Version: 4.1.3====
====Start Log====
Keys are not set correctly.
====End Log====


05-21-2018 @ 09:51:34 - 
====Stripe Version: 4.1.3====
====Start Log====
Keys are not set correctly.
====End Log====


05-21-2018 @ 09:52:02 - 
====Stripe Version: 4.1.3====
====Start Log====
Keys are not set correctly.
====End Log====


05-21-2018 @ 09:52:12 - 
====Stripe Version: 4.1.3====
====Start Log====
Keys are not set correctly.
====End Log====


05-21-2018 @ 09:52:24 - 
====Stripe Version: 4.1.3====
====Start Log====
Keys are not set correctly.
====End Log====


05-21-2018 @ 09:52:58 - 
====Stripe Version: 4.1.3====
====Start Log====
Keys are not set correctly.
====End Log====


05-21-2018 @ 09:54:08 - 
====Stripe Version: 4.1.3====
====Start Log====
Keys are not set correctly.
====End Log====


05-21-2018 @ 09:54:31 - 
====Stripe Version: 4.1.3====
====Start Log====
Keys are not set correctly.
====End Log====


05-21-2018 @ 09:54:38 - 
====Stripe Version: 4.1.3====
====Start Log====
Keys are not set correctly.
====End Log====


05-21-2018 @ 09:58:25 - 
====Stripe Version: 4.1.3====
====Start Log====
Keys are not set correctly.
====End Log====


05-21-2018 @ 09:58:48 - 
====Stripe Version: 4.1.3====
====Start Log====
Keys are not set correctly.
====End Log====


05-21-2018 @ 09:59:05 - 
====Stripe Version: 4.1.3====
====Start Log====
Keys are not set correctly.
====End Log====


05-21-2018 @ 09:59:22 - 
====Stripe Version: 4.1.3====
====Start Log====
Keys are not set correctly.
====End Log====


05-21-2018 @ 09:59:44 - 
====Stripe Version: 4.1.3====
====Start Log====
Keys are not set correctly.
====End Log====


05-21-2018 @ 10:03:42 - 
====Stripe Version: 4.1.3====
====Start Log====
Keys are not set correctly.
====End Log====


05-21-2018 @ 10:08:57 - 
====Stripe Version: 4.1.3====
====Start Log====
Keys are not set correctly.
====End Log====


05-21-2018 @ 10:09:11 - 
====Stripe Version: 4.1.3====
====Start Log====
Keys are not set correctly.
====End Log====


05-21-2018 @ 10:10:17 - 
====Stripe Version: 4.1.3====
====Start Log====
Keys are not set correctly.
====End Log====


05-21-2018 @ 10:17:09 - 
====Stripe Version: 4.1.3====
====Start Log====
Keys are not set correctly.
====End Log====


05-21-2018 @ 10:23:22 - 
====Stripe Version: 4.1.3====
====Start Log====
Keys are not set correctly.
====End Log====


05-21-2018 @ 10:25:10 - 
====Stripe Version: 4.1.3====
====Start Log====
Keys are not set correctly.
====End Log====


05-21-2018 @ 10:25:19 - 
====Stripe Version: 4.1.3====
====Start Log====
Keys are not set correctly.
====End Log====


05-21-2018 @ 10:26:24 - 
====Stripe Version: 4.1.3====
====Start Log====
Keys are not set correctly.
====End Log====


05-21-2018 @ 10:27:24 - 
====Stripe Version: 4.1.3====
====Start Log====
Keys are not set correctly.
====End Log====


05-21-2018 @ 10:27:50 - 
====Stripe Version: 4.1.3====
====Start Log====
Keys are not set correctly.
====End Log====


05-21-2018 @ 10:29:15 - 
====Stripe Version: 4.1.3====
====Start Log====
Keys are not set correctly.
====End Log====


05-21-2018 @ 10:30:41 - 
====Stripe Version: 4.1.3====
====Start Log====
Keys are not set correctly.
====End Log====


05-21-2018 @ 10:30:43 - 
====Stripe Version: 4.1.3====
====Start Log====
Keys are not set correctly.
====End Log====


05-21-2018 @ 10:30:45 - 
====Stripe Version: 4.1.3====
====Start Log====
Keys are not set correctly.
====End Log====


05-21-2018 @ 10:30:54 - 
====Stripe Version: 4.1.3====
====Start Log====
Keys are not set correctly.
====End Log====


05-21-2018 @ 10:31:03 - 
====Stripe Version: 4.1.3====
====Start Log====
Keys are not set correctly.
====End Log====


05-21-2018 @ 10:32:26 - 
====Stripe Version: 4.1.3====
====Start Log====
Keys are not set correctly.
====End Log====


05-21-2018 @ 10:32:45 - 
====Stripe Version: 4.1.3====
====Start Log====
Keys are not set correctly.
====End Log====


05-21-2018 @ 10:32:57 - 
====Stripe Version: 4.1.3====
====Start Log====
Keys are not set correctly.
====End Log====


05-21-2018 @ 10:33:08 - 
====Stripe Version: 4.1.3====
====Start Log====
Keys are not set correctly.
====End Log====


05-21-2018 @ 10:33:12 - 
====Stripe Version: 4.1.3====
====Start Log====
Keys are not set correctly.
====End Log====


05-21-2018 @ 10:33:19 - 
====Stripe Version: 4.1.3====
====Start Log====
Keys are not set correctly.
====End Log====


05-21-2018 @ 10:33:21 - 
====Stripe Version: 4.1.3====
====Start Log====
Keys are not set correctly.
====End Log====


05-21-2018 @ 10:33:23 - 
====Stripe Version: 4.1.3====
====Start Log====
Keys are not set correctly.
====End Log====


05-21-2018 @ 10:33:30 - 
====Stripe Version: 4.1.3====
====Start Log====
Keys are not set correctly.
====End Log====


05-21-2018 @ 10:34:06 - 
====Stripe Version: 4.1.3====
====Start Log====
Keys are not set correctly.
====End Log====


05-21-2018 @ 10:34:24 - 
====Stripe Version: 4.1.3====
====Start Log====
Keys are not set correctly.
====End Log====


05-21-2018 @ 10:35:06 - 
====Stripe Version: 4.1.3====
====Start Log====
Keys are not set correctly.
====End Log====


05-21-2018 @ 10:35:51 - 
====Stripe Version: 4.1.3====
====Start Log====
Keys are not set correctly.
====End Log====


05-21-2018 @ 10:36:57 - 
====Stripe Version: 4.1.3====
====Start Log====
Keys are not set correctly.
====End Log====


05-21-2018 @ 10:37:29 - 
====Stripe Version: 4.1.3====
====Start Log====
Keys are not set correctly.
====End Log====


05-21-2018 @ 10:38:42 - 
====Stripe Version: 4.1.3====
====Start Log====
Keys are not set correctly.
====End Log====


05-21-2018 @ 10:39:32 - 
====Stripe Version: 4.1.3====
====Start Log====
Keys are not set correctly.
====End Log====


05-21-2018 @ 10:42:02 - 
====Stripe Version: 4.1.3====
====Start Log====
Keys are not set correctly.
====End Log====


05-21-2018 @ 10:42:20 - 
====Stripe Version: 4.1.3====
====Start Log====
Keys are not set correctly.
====End Log====


05-21-2018 @ 10:42:45 - 
====Stripe Version: 4.1.3====
====Start Log====
Keys are not set correctly.
====End Log====


05-21-2018 @ 10:42:54 - 
====Stripe Version: 4.1.3====
====Start Log====
Keys are not set correctly.
====End Log====


05-21-2018 @ 10:43:30 - 
====Stripe Version: 4.1.3====
====Start Log====
Keys are not set correctly.
====End Log====


05-21-2018 @ 10:43:39 - 
====Stripe Version: 4.1.3====
====Start Log====
Keys are not set correctly.
====End Log====


05-21-2018 @ 10:44:15 - 
====Stripe Version: 4.1.3====
====Start Log====
Keys are not set correctly.
====End Log====


05-21-2018 @ 10:44:45 - 
====Stripe Version: 4.1.3====
====Start Log====
Keys are not set correctly.
====End Log====


05-21-2018 @ 10:45:40 - 
====Stripe Version: 4.1.3====
====Start Log====
Keys are not set correctly.
====End Log====


05-21-2018 @ 10:47:26 - 
====Stripe Version: 4.1.3====
====Start Log====
Keys are not set correctly.
====End Log====


05-21-2018 @ 10:47:32 - 
====Stripe Version: 4.1.3====
====Start Log====
Keys are not set correctly.
====End Log====


05-21-2018 @ 10:49:32 - 
====Stripe Version: 4.1.3====
====Start Log====
Keys are not set correctly.
====End Log====


05-21-2018 @ 10:49:35 - 
====Stripe Version: 4.1.3====
====Start Log====
Keys are not set correctly.
====End Log====


05-21-2018 @ 10:49:40 - 
====Stripe Version: 4.1.3====
====Start Log====
Keys are not set correctly.
====End Log====


05-21-2018 @ 10:49:49 - 
====Stripe Version: 4.1.3====
====Start Log====
Keys are not set correctly.
====End Log====


05-21-2018 @ 10:50:29 - 
====Stripe Version: 4.1.3====
====Start Log====
Keys are not set correctly.
====End Log====


05-21-2018 @ 10:50:57 - 
====Stripe Version: 4.1.3====
====Start Log====
Keys are not set correctly.
====End Log====


05-21-2018 @ 10:51:02 - 
====Stripe Version: 4.1.3====
====Start Log====
Keys are not set correctly.
====End Log====


05-21-2018 @ 10:51:33 - 
====Stripe Version: 4.1.3====
====Start Log====
Keys are not set correctly.
====End Log====


05-21-2018 @ 10:51:40 - 
====Stripe Version: 4.1.3====
====Start Log====
Keys are not set correctly.
====End Log====


05-21-2018 @ 10:52:05 - 
====Stripe Version: 4.1.3====
====Start Log====
Keys are not set correctly.
====End Log====


05-21-2018 @ 10:52:16 - 
====Stripe Version: 4.1.3====
====Start Log====
Keys are not set correctly.
====End Log====


05-21-2018 @ 10:52:31 - 
====Stripe Version: 4.1.3====
====Start Log====
Keys are not set correctly.
====End Log====


05-21-2018 @ 10:52:52 - 
====Stripe Version: 4.1.3====
====Start Log====
Keys are not set correctly.
====End Log====


05-21-2018 @ 10:53:36 - 
====Stripe Version: 4.1.3====
====Start Log====
Keys are not set correctly.
====End Log====


05-21-2018 @ 10:53:49 - 
====Stripe Version: 4.1.3====
====Start Log====
Keys are not set correctly.
====End Log====


05-21-2018 @ 10:54:07 - 
====Stripe Version: 4.1.3====
====Start Log====
Keys are not set correctly.
====End Log====


05-21-2018 @ 10:54:12 - 
====Stripe Version: 4.1.3====
====Start Log====
Keys are not set correctly.
====End Log====


05-21-2018 @ 10:54:33 - 
====Stripe Version: 4.1.3====
====Start Log====
Keys are not set correctly.
====End Log====


05-21-2018 @ 10:54:36 - 
====Stripe Version: 4.1.3====
====Start Log====
Keys are not set correctly.
====End Log====


05-21-2018 @ 10:57:08 - 
====Stripe Version: 4.1.3====
====Start Log====
Keys are not set correctly.
====End Log====


05-21-2018 @ 10:57:15 - 
====Stripe Version: 4.1.3====
====Start Log====
Keys are not set correctly.
====End Log====


05-21-2018 @ 10:57:21 - 
====Stripe Version: 4.1.3====
====Start Log====
Keys are not set correctly.
====End Log====


05-21-2018 @ 10:57:29 - 
====Stripe Version: 4.1.3====
====Start Log====
Keys are not set correctly.
====End Log====


05-21-2018 @ 10:58:20 - 
====Stripe Version: 4.1.3====
====Start Log====
Keys are not set correctly.
====End Log====


05-21-2018 @ 10:58:24 - 
====Stripe Version: 4.1.3====
====Start Log====
Keys are not set correctly.
====End Log====


05-21-2018 @ 10:58:38 - 
====Stripe Version: 4.1.3====
====Start Log====
Keys are not set correctly.
====End Log====


05-21-2018 @ 10:58:48 - 
====Stripe Version: 4.1.3====
====Start Log====
Keys are not set correctly.
====End Log====


05-21-2018 @ 10:59:09 - 
====Stripe Version: 4.1.3====
====Start Log====
Keys are not set correctly.
====End Log====


05-21-2018 @ 10:59:25 - 
====Stripe Version: 4.1.3====
====Start Log====
Keys are not set correctly.
====End Log====


05-21-2018 @ 11:01:33 - 
====Stripe Version: 4.1.3====
====Start Log====
Keys are not set correctly.
====End Log====


05-21-2018 @ 11:02:45 - 
====Stripe Version: 4.1.3====
====Start Log====
Keys are not set correctly.
====End Log====


05-21-2018 @ 11:02:48 - 
====Stripe Version: 4.1.3====
====Start Log====
Keys are not set correctly.
====End Log====


05-21-2018 @ 11:02:56 - 
====Stripe Version: 4.1.3====
====Start Log====
Keys are not set correctly.
====End Log====


05-21-2018 @ 11:04:18 - 
====Stripe Version: 4.1.3====
====Start Log====
Keys are not set correctly.
====End Log====


05-21-2018 @ 11:04:40 - 
====Stripe Version: 4.1.3====
====Start Log====
Keys are not set correctly.
====End Log====


05-21-2018 @ 11:04:51 - 
====Stripe Version: 4.1.3====
====Start Log====
Keys are not set correctly.
====End Log====


05-21-2018 @ 11:04:55 - 
====Stripe Version: 4.1.3====
====Start Log====
Keys are not set correctly.
====End Log====


05-21-2018 @ 11:05:03 - 
====Stripe Version: 4.1.3====
====Start Log====
Keys are not set correctly.
====End Log====


05-21-2018 @ 11:05:20 - 
====Stripe Version: 4.1.3====
====Start Log====
Keys are not set correctly.
====End Log====


05-21-2018 @ 11:06:18 - 
====Stripe Version: 4.1.3====
====Start Log====
Keys are not set correctly.
====End Log====


05-21-2018 @ 11:06:24 - 
====Stripe Version: 4.1.3====
====Start Log====
Keys are not set correctly.
====End Log====


05-21-2018 @ 11:06:52 - 
====Stripe Version: 4.1.3====
====Start Log====
Keys are not set correctly.
====End Log====


05-21-2018 @ 11:08:39 - 
====Stripe Version: 4.1.3====
====Start Log====
Keys are not set correctly.
====End Log====


05-21-2018 @ 11:09:25 - 
====Stripe Version: 4.1.3====
====Start Log====
Keys are not set correctly.
====End Log====


05-21-2018 @ 11:09:44 - 
====Stripe Version: 4.1.3====
====Start Log====
Error: Unable to verify domain - missing secret key.
====End Log====


05-21-2018 @ 11:10:07 - 
====Stripe Version: 4.1.3====
====Start Log====
Keys are not set correctly.
====End Log====


05-21-2018 @ 11:11:41 - 
====Stripe Version: 4.1.3====
====Start Log====
Keys are not set correctly.
====End Log====


05-21-2018 @ 11:13:18 - 
====Stripe Version: 4.1.3====
====Start Log====
Keys are not set correctly.
====End Log====


05-21-2018 @ 11:13:26 - 
====Stripe Version: 4.1.3====
====Start Log====
Keys are not set correctly.
====End Log====


05-21-2018 @ 11:13:33 - 
====Stripe Version: 4.1.3====
====Start Log====
Keys are not set correctly.
====End Log====


05-21-2018 @ 11:15:45 - 
====Stripe Version: 4.1.3====
====Start Log====
Keys are not set correctly.
====End Log====


05-21-2018 @ 11:18:28 - 
====Stripe Version: 4.1.3====
====Start Log====
Keys are not set correctly.
====End Log====


05-21-2018 @ 11:20:14 - 
====Stripe Version: 4.1.3====
====Start Log====
Keys are not set correctly.
====End Log====


05-21-2018 @ 11:21:02 - 
====Stripe Version: 4.1.3====
====Start Log====
Keys are not set correctly.
====End Log====


05-21-2018 @ 11:21:32 - 
====Stripe Version: 4.1.3====
====Start Log====
Keys are not set correctly.
====End Log====


05-21-2018 @ 11:21:50 - 
====Stripe Version: 4.1.3====
====Start Log====
Keys are not set correctly.
====End Log====


05-21-2018 @ 11:25:18 - 
====Stripe Version: 4.1.3====
====Start Log====
Keys are not set correctly.
====End Log====


05-21-2018 @ 11:27:26 - 
====Stripe Version: 4.1.3====
====Start Log====
Keys are not set correctly.
====End Log====


05-21-2018 @ 11:27:42 - 
====Stripe Version: 4.1.3====
====Start Log====
Keys are not set correctly.
====End Log====


05-21-2018 @ 11:28:23 - 
====Stripe Version: 4.1.3====
====Start Log====
Keys are not set correctly.
====End Log====


05-21-2018 @ 11:29:42 - 
====Stripe Version: 4.1.3====
====Start Log====
Keys are not set correctly.
====End Log====


05-21-2018 @ 11:29:53 - 
====Stripe Version: 4.1.3====
====Start Log====
Keys are not set correctly.
====End Log====


05-21-2018 @ 11:31:15 - 
====Stripe Version: 4.1.3====
====Start Log====
Keys are not set correctly.
====End Log====


05-21-2018 @ 11:35:57 - 
====Stripe Version: 4.1.3====
====Start Log====
Keys are not set correctly.
====End Log====


05-21-2018 @ 11:37:52 - 
====Stripe Version: 4.1.3====
====Start Log====
Keys are not set correctly.
====End Log====


05-21-2018 @ 11:38:31 - 
====Stripe Version: 4.1.3====
====Start Log====
Keys are not set correctly.
====End Log====


05-21-2018 @ 11:38:55 - 
====Stripe Version: 4.1.3====
====Start Log====
Keys are not set correctly.
====End Log====


05-21-2018 @ 11:39:20 - 
====Stripe Version: 4.1.3====
====Start Log====
Keys are not set correctly.
====End Log====


05-21-2018 @ 11:55:01 - 
====Stripe Version: 4.1.3====
====Start Log====
Keys are not set correctly.
====End Log====


05-21-2018 @ 11:55:39 - 
====Stripe Version: 4.1.3====
====Start Log====
Keys are not set correctly.
====End Log====


05-21-2018 @ 11:56:20 - 
====Stripe Version: 4.1.3====
====Start Log====
Keys are not set correctly.
====End Log====


05-21-2018 @ 12:02:17 - 
====Stripe Version: 4.1.3====
====Start Log====
Keys are not set correctly.
====End Log====


05-21-2018 @ 12:02:24 - 
====Stripe Version: 4.1.3====
====Start Log====
Keys are not set correctly.
====End Log====


05-21-2018 @ 12:02:51 - 
====Stripe Version: 4.1.3====
====Start Log====
Keys are not set correctly.
====End Log====


05-21-2018 @ 12:03:01 - 
====Stripe Version: 4.1.3====
====Start Log====
Keys are not set correctly.
====End Log====


05-21-2018 @ 12:03:07 - 
====Stripe Version: 4.1.3====
====Start Log====
Keys are not set correctly.
====End Log====


05-21-2018 @ 12:03:38 - 
====Stripe Version: 4.1.3====
====Start Log====
Keys are not set correctly.
====End Log====


05-21-2018 @ 12:04:15 - 
====Stripe Version: 4.1.3====
====Start Log====
Keys are not set correctly.
====End Log====


05-21-2018 @ 12:04:22 - 
====Stripe Version: 4.1.3====
====Start Log====
Keys are not set correctly.
====End Log====


05-21-2018 @ 12:04:30 - 
====Stripe Version: 4.1.3====
====Start Log====
Keys are not set correctly.
====End Log====


05-21-2018 @ 12:06:12 - 
====Stripe Version: 4.1.3====
====Start Log====
Keys are not set correctly.
====End Log====


05-21-2018 @ 12:07:38 - 
====Stripe Version: 4.1.3====
====Start Log====
Keys are not set correctly.
====End Log====


05-21-2018 @ 12:07:51 - 
====Stripe Version: 4.1.3====
====Start Log====
Keys are not set correctly.
====End Log====


05-21-2018 @ 12:08:00 - 
====Stripe Version: 4.1.3====
====Start Log====
Keys are not set correctly.
====End Log====


05-21-2018 @ 12:08:47 - 
====Stripe Version: 4.1.3====
====Start Log====
Keys are not set correctly.
====End Log====


05-21-2018 @ 12:09:50 - 
====Stripe Version: 4.1.3====
====Start Log====
Keys are not set correctly.
====End Log====


05-21-2018 @ 12:10:37 - 
====Stripe Version: 4.1.3====
====Start Log====
Keys are not set correctly.
====End Log====


05-21-2018 @ 12:10:38 - 
====Stripe Version: 4.1.3====
====Start Log====
Keys are not set correctly.
====End Log====


05-21-2018 @ 12:11:22 - 
====Stripe Version: 4.1.3====
====Start Log====
Keys are not set correctly.
====End Log====


05-21-2018 @ 12:13:40 - 
====Stripe Version: 4.1.3====
====Start Log====
Keys are not set correctly.
====End Log====


05-21-2018 @ 12:13:58 - 
====Stripe Version: 4.1.3====
====Start Log====
Keys are not set correctly.
====End Log====


05-21-2018 @ 12:15:22 - 
====Stripe Version: 4.1.3====
====Start Log====
Keys are not set correctly.
====End Log====


05-21-2018 @ 12:16:01 - 
====Stripe Version: 4.1.3====
====Start Log====
Keys are not set correctly.
====End Log====


05-21-2018 @ 12:17:20 - 
====Stripe Version: 4.1.3====
====Start Log====
Keys are not set correctly.
====End Log====


05-21-2018 @ 12:20:07 - 
====Stripe Version: 4.1.3====
====Start Log====
Keys are not set correctly.
====End Log====


05-21-2018 @ 16:37:51 - 
====Stripe Version: 4.1.3====
====Start Log====
Keys are not set correctly.
====End Log====


05-21-2018 @ 16:40:13 - 
====Stripe Version: 4.1.3====
====Start Log====
Keys are not set correctly.
====End Log====


05-21-2018 @ 16:41:06 - 
====Stripe Version: 4.1.3====
====Start Log====
Keys are not set correctly.
====End Log====


05-21-2018 @ 16:41:43 - 
====Stripe Version: 4.1.3====
====Start Log====
Keys are not set correctly.
====End Log====


05-21-2018 @ 16:42:01 - 
====Stripe Version: 4.1.3====
====Start Log====
Keys are not set correctly.
====End Log====


05-21-2018 @ 16:43:06 - 
====Stripe Version: 4.1.3====
====Start Log====
Keys are not set correctly.
====End Log====


05-21-2018 @ 16:43:17 - 
====Stripe Version: 4.1.3====
====Start Log====
Keys are not set correctly.
====End Log====


05-21-2018 @ 18:14:41 - 
====Stripe Version: 4.1.3====
====Start Log====
Keys are not set correctly.
====End Log====


05-21-2018 @ 18:14:43 - 
====Stripe Version: 4.1.3====
====Start Log====
Keys are not set correctly.
====End Log====


05-21-2018 @ 18:39:37 - 
====Stripe Version: 4.1.3====
====Start Log====
Keys are not set correctly.
====End Log====


05-21-2018 @ 18:40:43 - 
====Stripe Version: 4.1.3====
====Start Log====
Keys are not set correctly.
====End Log====


05-21-2018 @ 18:40:56 - 
====Stripe Version: 4.1.3====
====Start Log====
Keys are not set correctly.
====End Log====


05-21-2018 @ 18:41:00 - 
====Stripe Version: 4.1.3====
====Start Log====
Keys are not set correctly.
====End Log====


05-21-2018 @ 18:41:10 - 
====Stripe Version: 4.1.3====
====Start Log====
Keys are not set correctly.
====End Log====


05-21-2018 @ 18:41:37 - 
====Stripe Version: 4.1.3====
====Start Log====
Keys are not set correctly.
====End Log====


05-21-2018 @ 18:41:57 - 
====Stripe Version: 4.1.3====
====Start Log====
Keys are not set correctly.
====End Log====


05-21-2018 @ 18:42:05 - 
====Stripe Version: 4.1.3====
====Start Log====
Keys are not set correctly.
====End Log====


05-21-2018 @ 18:43:21 - 
====Stripe Version: 4.1.3====
====Start Log====
Keys are not set correctly.
====End Log====


05-21-2018 @ 18:43:48 - 
====Stripe Version: 4.1.3====
====Start Log====
Keys are not set correctly.
====End Log====


05-21-2018 @ 18:43:50 - 
====Stripe Version: 4.1.3====
====Start Log====
Keys are not set correctly.
====End Log====


05-21-2018 @ 18:44:04 - 
====Stripe Version: 4.1.3====
====Start Log====
Keys are not set correctly.
====End Log====


05-21-2018 @ 18:44:57 - 
====Stripe Version: 4.1.3====
====Start Log====
Keys are not set correctly.
====End Log====


05-21-2018 @ 18:45:16 - 
====Stripe Version: 4.1.3====
====Start Log====
Keys are not set correctly.
====End Log====


05-21-2018 @ 18:45:36 - 
====Stripe Version: 4.1.3====
====Start Log====
Keys are not set correctly.
====End Log====


05-21-2018 @ 18:45:58 - 
====Stripe Version: 4.1.3====
====Start Log====
Keys are not set correctly.
====End Log====


05-21-2018 @ 18:46:27 - 
====Stripe Version: 4.1.3====
====Start Log====
Keys are not set correctly.
====End Log====


05-21-2018 @ 18:46:49 - 
====Stripe Version: 4.1.3====
====Start Log====
Keys are not set correctly.
====End Log====


05-21-2018 @ 18:46:59 - 
====Stripe Version: 4.1.3====
====Start Log====
Keys are not set correctly.
====End Log====


05-21-2018 @ 18:47:13 - 
====Stripe Version: 4.1.3====
====Start Log====
Keys are not set correctly.
====End Log====


05-21-2018 @ 18:47:30 - 
====Stripe Version: 4.1.3====
====Start Log====
Keys are not set correctly.
====End Log====


05-21-2018 @ 18:47:56 - 
====Stripe Version: 4.1.3====
====Start Log====
Keys are not set correctly.
====End Log====


05-21-2018 @ 18:47:58 - 
====Stripe Version: 4.1.3====
====Start Log====
Keys are not set correctly.
====End Log====


05-21-2018 @ 18:49:13 - 
====Stripe Version: 4.1.3====
====Start Log====
Keys are not set correctly.
====End Log====


05-21-2018 @ 18:53:47 - 
====Stripe Version: 4.1.3====
====Start Log====
Keys are not set correctly.
====End Log====


05-21-2018 @ 19:10:15 - 
====Stripe Version: 4.1.3====
====Start Log====
Error: Unable to verify domain - missing secret key.
====End Log====


05-21-2018 @ 19:12:07 - 
====Stripe Version: 4.1.3====
====Start Log====
Error: Unable to verify domain - missing secret key.
====End Log====


05-21-2018 @ 19:12:17 - 
====Stripe Version: 4.1.3====
====Start Log====
Error: Unable to verify domain - missing secret key.
====End Log====


